{
  "version": "5",
  "dialect": "pg",
  "id": "91871b2e-eb87-4e1b-bf9a-ab0c30d20780",
  "prevId": "00000000-0000-0000-0000-000000000000",
  "tables": {
    "users": {
      "name": "users",
      "schema": "",
      "columns": {
        "id": {
          "name": "id",
          "type": "serial",
          "primaryKey": true,
          "notNull": true
        },
        "email": {
          "name": "email",
          "type": "varchar(50)",
          "primaryKey": false,
          "notNull": true
        },
        "firstName": {
          "name": "firstName",
          "type": "varchar(50)",
          "primaryKey": false,
          "notNull": true
        },
        "lastName": {
          "name": "lastName",
          "type": "varchar(50)",
          "primaryKey": false,
          "notNull": true
        },
        "photo": {
          "name": "photo",
          "type": "varchar(30)",
          "primaryKey": false,
          "notNull": false,
          "default": "'default.jpg'"
        },
        "password": {
          "name": "password",
          "type": "varchar(255)",
          "primaryKey": false,
          "notNull": true
        },
        "verificationCode": {
          "name": "verificationCode",
          "type": "text",
          "primaryKey": false,
          "notNull": false
        },
        "passwordResetCode": {
          "name": "passwordResetCode",
          "type": "text",
          "primaryKey": false,
          "notNull": false
        },
        "verified": {
          "name": "verified",
          "type": "boolean",
          "primaryKey": false,
          "notNull": false,
          "default": false
        },
        "role": {
          "name": "role",
          "type": "role",
          "primaryKey": false,
          "notNull": true,
          "default": "'user'"
        },
        "created_at": {
          "name": "created_at",
          "type": "timestamp",
          "primaryKey": false,
          "notNull": true,
          "default": "now()"
        },
        "updated_at": {
          "name": "updated_at",
          "type": "timestamp",
          "primaryKey": false,
          "notNull": true,
          "default": "now()"
        }
      },
      "indexes": {
        "email_idx": {
          "name": "email_idx",
          "columns": [
            "email"
          ],
          "isUnique": true
        }
      },
      "foreignKeys": {},
      "compositePrimaryKeys": {},
      "uniqueConstraints": {
        "users_verificationCode_unique": {
          "name": "users_verificationCode_unique",
          "nullsNotDistinct": false,
          "columns": [
            "verificationCode"
          ]
        },
        "users_passwordResetCode_unique": {
          "name": "users_passwordResetCode_unique",
          "nullsNotDistinct": false,
          "columns": [
            "passwordResetCode"
          ]
        }
      }
    }
  },
  "enums": {
    "role": {
      "name": "role",
      "values": {
        "admin": "admin",
        "user": "user"
      }
    }
  },
  "schemas": {},
  "_meta": {
    "schemas": {},
    "tables": {},
    "columns": {}
  }
}